Library\Bee\artifacts\movedfrom\Unity.VisualScripting.Core.ref.dll_1140816074267794399.movedfrom
Library\Bee\artifacts\movedfrom\Unity.VisualScripting.Flow.ref.dll_6261655512741515406.movedfrom
Library\Bee\artifacts\movedfrom\UnityEngine.UI.ref.dll_12664940582929284107.movedfrom
Library\Bee\artifacts\movedfrom\UnityEngine.AccessibilityModule.dll_5483757914052058270.movedfrom
Library\Bee\artifacts\movedfrom\UnityEngine.AIModule.dll_6817755903177363836.movedfrom
Library\Bee\artifacts\movedfrom\UnityEngine.AndroidJNIModule.dll_2796059373707793722.movedfrom
Library\Bee\artifacts\movedfrom\UnityEngine.AnimationModule.dll_17758270616061273028.movedfrom
Library\Bee\artifacts\movedfrom\UnityEngine.ARModule.dll_1733971492067274821.movedfrom
Library\Bee\artifacts\movedfrom\UnityEngine.AssetBundleModule.dll_6420638075737660274.movedfrom
Library\Bee\artifacts\movedfrom\UnityEngine.AudioModule.dll_9525651810570449846.movedfrom
Library\Bee\artifacts\movedfrom\UnityEngine.ClothModule.dll_16940930829506876058.movedfrom
Library\Bee\artifacts\movedfrom\UnityEngine.CoreModule.dll_11154849205163041619.movedfrom
Library\Bee\artifacts\movedfrom\UnityEngine.CrashReportingModule.dll_4316581163519772875.movedfrom
Library\Bee\artifacts\movedfrom\UnityEngine.DirectorModule.dll_10563961446572731952.movedfrom
Library\Bee\artifacts\movedfrom\UnityEngine.dll_6926276835913663954.movedfrom
Library\Bee\artifacts\movedfrom\UnityEngine.DSPGraphModule.dll_10947155995394342737.movedfrom
Library\Bee\artifacts\movedfrom\UnityEngine.GameCenterModule.dll_5844233375363237419.movedfrom
Library\Bee\artifacts\movedfrom\UnityEngine.GIModule.dll_17787479018340383126.movedfrom
Library\Bee\artifacts\movedfrom\UnityEngine.GridModule.dll_8664670795628230986.movedfrom
Library\Bee\artifacts\movedfrom\UnityEngine.HotReloadModule.dll_8627431303929265990.movedfrom
Library\Bee\artifacts\movedfrom\UnityEngine.ImageConversionModule.dll_7366070654325189521.movedfrom
Library\Bee\artifacts\movedfrom\UnityEngine.IMGUIModule.dll_13587792463242545047.movedfrom
Library\Bee\artifacts\movedfrom\UnityEngine.InputLegacyModule.dll_16888440802842415459.movedfrom
Library\Bee\artifacts\movedfrom\UnityEngine.InputModule.dll_16908678535425808474.movedfrom
Library\Bee\artifacts\movedfrom\UnityEngine.JSONSerializeModule.dll_12407911756935642408.movedfrom
Library\Bee\artifacts\movedfrom\UnityEngine.LocalizationModule.dll_1596098872298553501.movedfrom
Library\Bee\artifacts\movedfrom\UnityEngine.ParticleSystemModule.dll_10302508610861569113.movedfrom
Library\Bee\artifacts\movedfrom\UnityEngine.PerformanceReportingModule.dll_16293932499030264594.movedfrom
Library\Bee\artifacts\movedfrom\UnityEngine.Physics2DModule.dll_4834610877163625305.movedfrom
Library\Bee\artifacts\movedfrom\UnityEngine.PhysicsModule.dll_1578202535385403719.movedfrom
Library\Bee\artifacts\movedfrom\UnityEngine.ProfilerModule.dll_14186607303502673213.movedfrom
Library\Bee\artifacts\movedfrom\UnityEngine.RuntimeInitializeOnLoadManagerInitializerModule.dll_12721818660774182434.movedfrom
Library\Bee\artifacts\movedfrom\UnityEngine.ScreenCaptureModule.dll_14274563114588891530.movedfrom
Library\Bee\artifacts\movedfrom\UnityEngine.SharedInternalsModule.dll_16882527228484216545.movedfrom
Library\Bee\artifacts\movedfrom\UnityEngine.SpriteMaskModule.dll_4199419574827981733.movedfrom
Library\Bee\artifacts\movedfrom\UnityEngine.SpriteShapeModule.dll_8249430867044406140.movedfrom
Library\Bee\artifacts\movedfrom\UnityEngine.StreamingModule.dll_12323812694919387906.movedfrom
Library\Bee\artifacts\movedfrom\UnityEngine.SubstanceModule.dll_9777893835600402704.movedfrom
Library\Bee\artifacts\movedfrom\UnityEngine.SubsystemsModule.dll_11886332284077966264.movedfrom
Library\Bee\artifacts\movedfrom\UnityEngine.TerrainModule.dll_3471538944703912501.movedfrom
Library\Bee\artifacts\movedfrom\UnityEngine.TerrainPhysicsModule.dll_10337034182635654886.movedfrom
Library\Bee\artifacts\movedfrom\UnityEngine.TextCoreModule.dll_3122559016441617984.movedfrom
Library\Bee\artifacts\movedfrom\UnityEngine.TextRenderingModule.dll_17246782784025815423.movedfrom
Library\Bee\artifacts\movedfrom\UnityEngine.TilemapModule.dll_14927684300974308158.movedfrom
Library\Bee\artifacts\movedfrom\UnityEngine.TLSModule.dll_5130070399138838619.movedfrom
Library\Bee\artifacts\movedfrom\UnityEngine.UIElementsModule.dll_12192121208143462319.movedfrom
Library\Bee\artifacts\movedfrom\UnityEngine.UIElementsNativeModule.dll_13619567432617472934.movedfrom
Library\Bee\artifacts\movedfrom\UnityEngine.UIModule.dll_6490011472968324904.movedfrom
Library\Bee\artifacts\movedfrom\UnityEngine.UmbraModule.dll_18376540199707631401.movedfrom
Library\Bee\artifacts\movedfrom\UnityEngine.UNETModule.dll_3275317774470715596.movedfrom
Library\Bee\artifacts\movedfrom\UnityEngine.UnityConnectModule.dll_5016095322066516873.movedfrom
Library\Bee\artifacts\movedfrom\UnityEngine.UnityCurlModule.dll_2994522371339769265.movedfrom
Library\Bee\artifacts\movedfrom\UnityEngine.UnityTestProtocolModule.dll_4474334503911867039.movedfrom
Library\Bee\artifacts\movedfrom\UnityEngine.VehiclesModule.dll_746951534764195275.movedfrom
Library\Bee\artifacts\movedfrom\UnityEngine.VFXModule.dll_14416097482634699208.movedfrom
Library\Bee\artifacts\movedfrom\UnityEngine.VRModule.dll_12457886284573514912.movedfrom
Library\Bee\artifacts\movedfrom\UnityEngine.WindModule.dll_1233097243393860028.movedfrom
Library\Bee\artifacts\movedfrom\UnityEngine.XRModule.dll_16114460656294521342.movedfrom
Library\Bee\artifacts\movedfrom\Unity.VisualScripting.Antlr3.Runtime.dll_9928541188153788165.movedfrom