Library\Bee\artifacts\movedfrom\Unity.2D.Animation.Editor.ref.dll_1381032532986770200.movedfrom
Library\Bee\artifacts\movedfrom\Unity.2D.Animation.Runtime.ref.dll_11331016672870828435.movedfrom
Library\Bee\artifacts\movedfrom\Unity.2D.Animation.Triangle.Runtime.ref.dll_14687136762936430813.movedfrom
Library\Bee\artifacts\movedfrom\Unity.2D.Common.Editor.ref.dll_13137469594123315717.movedfrom
Library\Bee\artifacts\movedfrom\Unity.2D.Common.Runtime.ref.dll_4445111758797203798.movedfrom
Library\Bee\artifacts\movedfrom\Unity.2D.IK.Editor.ref.dll_7871984632621119070.movedfrom
Library\Bee\artifacts\movedfrom\Unity.2D.IK.Runtime.ref.dll_12895937815122261741.movedfrom
Library\Bee\artifacts\movedfrom\Unity.2D.Path.Editor.ref.dll_15398882949196716795.movedfrom
Library\Bee\artifacts\movedfrom\Unity.2D.PixelPerfect.Editor.ref.dll_15414773010652104473.movedfrom
Library\Bee\artifacts\movedfrom\Unity.2D.PixelPerfect.ref.dll_4921397781613029912.movedfrom
Library\Bee\artifacts\movedfrom\Unity.2D.Psdimporter.Editor.ref.dll_11214365632464952393.movedfrom
Library\Bee\artifacts\movedfrom\Unity.2D.Sprite.Editor.ref.dll_15470612027653790987.movedfrom
Library\Bee\artifacts\movedfrom\Unity.2D.SpriteShape.Editor.ref.dll_18385218416429017184.movedfrom
Library\Bee\artifacts\movedfrom\Unity.2D.SpriteShape.Runtime.ref.dll_4809919756033293259.movedfrom
Library\Bee\artifacts\movedfrom\Unity.2D.Tilemap.Editor.ref.dll_694315784046071294.movedfrom
Library\Bee\artifacts\movedfrom\Unity.2D.Tilemap.Extras.Editor.ref.dll_2859308661411624717.movedfrom
Library\Bee\artifacts\movedfrom\Unity.2D.Tilemap.Extras.ref.dll_18254456868604250852.movedfrom
Library\Bee\artifacts\movedfrom\Unity.InternalAPIEditorBridge.001.ref.dll_15050463811861795467.movedfrom
Library\Bee\artifacts\movedfrom\Unity.InternalAPIEngineBridge.001.ref.dll_14076200484468931024.movedfrom
Library\Bee\artifacts\movedfrom\Unity.Mathematics.Editor.ref.dll_8313573181632161926.movedfrom
Library\Bee\artifacts\movedfrom\Unity.Mathematics.ref.dll_12584944931151189467.movedfrom
Library\Bee\artifacts\movedfrom\Unity.PlasticSCM.Editor.ref.dll_16983515738950376899.movedfrom
Library\Bee\artifacts\movedfrom\Unity.Rider.Editor.ref.dll_1337890219876763090.movedfrom
Library\Bee\artifacts\movedfrom\Unity.TextMeshPro.Editor.ref.dll_17211901307208996041.movedfrom
Library\Bee\artifacts\movedfrom\Unity.TextMeshPro.ref.dll_5357879337877242216.movedfrom
Library\Bee\artifacts\movedfrom\Unity.Timeline.Editor.ref.dll_14465445021659869151.movedfrom
Library\Bee\artifacts\movedfrom\Unity.Timeline.ref.dll_17375071859644247282.movedfrom
Library\Bee\artifacts\movedfrom\Unity.VSCode.Editor.ref.dll_15144934954784575046.movedfrom
Library\Bee\artifacts\movedfrom\Unity.VisualScripting.Core.Editor.ref.dll_18172149913731729802.movedfrom
Library\Bee\artifacts\movedfrom\Unity.VisualScripting.Core.ref.dll_961071436185302167.movedfrom
Library\Bee\artifacts\movedfrom\Unity.VisualScripting.Flow.Editor.ref.dll_8746371732211668171.movedfrom
Library\Bee\artifacts\movedfrom\Unity.VisualScripting.Flow.ref.dll_6081910874659023174.movedfrom
Library\Bee\artifacts\movedfrom\Unity.VisualScripting.State.Editor.ref.dll_13979714018264363154.movedfrom
Library\Bee\artifacts\movedfrom\Unity.VisualScripting.State.ref.dll_13640851275918507279.movedfrom
Library\Bee\artifacts\movedfrom\Unity.VisualStudio.Editor.ref.dll_12431607579042933178.movedfrom
Library\Bee\artifacts\movedfrom\UnityEditor.UI.ref.dll_15824696680977211992.movedfrom
Library\Bee\artifacts\movedfrom\UnityEngine.UI.ref.dll_10953444945479158467.movedfrom
Library\Bee\artifacts\movedfrom\UnityEditor.CoreModule.dll_11970302588816835180.movedfrom
Library\Bee\artifacts\movedfrom\UnityEditor.DeviceSimulatorModule.dll_8119868041101282069.movedfrom
Library\Bee\artifacts\movedfrom\UnityEditor.dll_12594664900222442345.movedfrom
Library\Bee\artifacts\movedfrom\UnityEditor.GraphViewModule.dll_6485634101417569690.movedfrom
Library\Bee\artifacts\movedfrom\UnityEditor.PackageManagerUIModule.dll_11226694418115649736.movedfrom
Library\Bee\artifacts\movedfrom\UnityEditor.QuickSearchModule.dll_8411607408077859964.movedfrom
Library\Bee\artifacts\movedfrom\UnityEditor.SceneTemplateModule.dll_1025046529717850749.movedfrom
Library\Bee\artifacts\movedfrom\UnityEditor.UIBuilderModule.dll_12576942935131547342.movedfrom
Library\Bee\artifacts\movedfrom\UnityEditor.UIElementsModule.dll_1247845665439117864.movedfrom
Library\Bee\artifacts\movedfrom\UnityEditor.UIElementsSamplesModule.dll_9070432155560446405.movedfrom
Library\Bee\artifacts\movedfrom\UnityEditor.UIServiceModule.dll_16680304262136674024.movedfrom
Library\Bee\artifacts\movedfrom\UnityEditor.UnityConnectModule.dll_11396501206033999650.movedfrom
Library\Bee\artifacts\movedfrom\UnityEngine.AccessibilityModule.dll_4674487899063482906.movedfrom
Library\Bee\artifacts\movedfrom\UnityEngine.AIModule.dll_113875406779939648.movedfrom
Library\Bee\artifacts\movedfrom\UnityEngine.AndroidJNIModule.dll_10347624706703745278.movedfrom
Library\Bee\artifacts\movedfrom\UnityEngine.AnimationModule.dll_2920327086327743040.movedfrom
Library\Bee\artifacts\movedfrom\UnityEngine.ARModule.dll_13476835069379402249.movedfrom
Library\Bee\artifacts\movedfrom\UnityEngine.AssetBundleModule.dll_13305105890512019822.movedfrom
Library\Bee\artifacts\movedfrom\UnityEngine.AudioModule.dll_2513345066786034482.movedfrom
Library\Bee\artifacts\movedfrom\UnityEngine.ClothModule.dll_9928624085722460694.movedfrom
Library\Bee\artifacts\movedfrom\UnityEngine.CoreModule.dll_14501557931358760343.movedfrom
Library\Bee\artifacts\movedfrom\UnityEngine.CrashReportingModule.dll_5301683526245590415.movedfrom
Library\Bee\artifacts\movedfrom\UnityEngine.DirectorModule.dll_779573512041048436.movedfrom
Library\Bee\artifacts\movedfrom\UnityEngine.dll_16243784393410897998.movedfrom
Library\Bee\artifacts\movedfrom\UnityEngine.DSPGraphModule.dll_1162768060862659221.movedfrom
Library\Bee\artifacts\movedfrom\UnityEngine.GameCenterModule.dll_13395798708359188975.movedfrom
Library\Bee\artifacts\movedfrom\UnityEngine.GIModule.dll_11083598521942958938.movedfrom
Library\Bee\artifacts\movedfrom\UnityEngine.GridModule.dll_12011379521823949710.movedfrom
Library\Bee\artifacts\movedfrom\UnityEngine.HotReloadModule.dll_12236231847905287618.movedfrom
Library\Bee\artifacts\movedfrom\UnityEngine.ImageConversionModule.dll_16307060465731850381.movedfrom
Library\Bee\artifacts\movedfrom\UnityEngine.IMGUIModule.dll_6575485719458129683.movedfrom
Library\Bee\artifacts\movedfrom\UnityEngine.InputLegacyModule.dll_5326164543907223391.movedfrom
Library\Bee\artifacts\movedfrom\UnityEngine.InputModule.dll_9896371791641393110.movedfrom
Library\Bee\artifacts\movedfrom\UnityEngine.JSONSerializeModule.dll_11598641741947067044.movedfrom
Library\Bee\artifacts\movedfrom\UnityEngine.LocalizationModule.dll_6634295792200543457.movedfrom
Library\Bee\artifacts\movedfrom\UnityEngine.ParticleSystemModule.dll_11287610973587386653.movedfrom
Library\Bee\artifacts\movedfrom\UnityEngine.PerformanceReportingModule.dll_13740993982913059158.movedfrom
Library\Bee\artifacts\movedfrom\UnityEngine.Physics2DModule.dll_8443411421139646933.movedfrom
Library\Bee\artifacts\movedfrom\UnityEngine.PhysicsModule.dll_6038267022330361923.movedfrom
Library\Bee\artifacts\movedfrom\UnityEngine.ProfilerModule.dll_4402219368970989697.movedfrom
Library\Bee\artifacts\movedfrom\UnityEngine.RuntimeInitializeOnLoadManagerInitializerModule.dll_7614339147588031646.movedfrom
Library\Bee\artifacts\movedfrom\UnityEngine.ScreenCaptureModule.dll_13465293099600316166.movedfrom
Library\Bee\artifacts\movedfrom\UnityEngine.SharedInternalsModule.dll_7376772966181325789.movedfrom
Library\Bee\artifacts\movedfrom\UnityEngine.SpriteMaskModule.dll_11750984907823933289.movedfrom
Library\Bee\artifacts\movedfrom\UnityEngine.SpriteShapeModule.dll_15133898681818765688.movedfrom
Library\Bee\artifacts\movedfrom\UnityEngine.StreamingModule.dll_15932613238895409534.movedfrom
Library\Bee\artifacts\movedfrom\UnityEngine.SubstanceModule.dll_13386694379576424332.movedfrom
Library\Bee\artifacts\movedfrom\UnityEngine.SubsystemsModule.dll_991153543364366204.movedfrom
Library\Bee\artifacts\movedfrom\UnityEngine.TerrainModule.dll_7931603431648870705.movedfrom
Library\Bee\artifacts\movedfrom\UnityEngine.TerrainPhysicsModule.dll_11322136545361472426.movedfrom
Library\Bee\artifacts\movedfrom\UnityEngine.TextCoreModule.dll_11784915155619486084.movedfrom
Library\Bee\artifacts\movedfrom\UnityEngine.TextRenderingModule.dll_16437512769037240059.movedfrom
Library\Bee\artifacts\movedfrom\UnityEngine.TilemapModule.dll_941004714209714746.movedfrom
Library\Bee\artifacts\movedfrom\UnityEngine.TLSModule.dll_4802610197725904983.movedfrom
Library\Bee\artifacts\movedfrom\UnityEngine.UIElementsModule.dll_1296942467429862259.movedfrom
Library\Bee\artifacts\movedfrom\UnityEngine.UIElementsNativeModule.dll_16593213403051151594.movedfrom
Library\Bee\artifacts\movedfrom\UnityEngine.UIModule.dll_18232875050280452332.movedfrom
Library\Bee\artifacts\movedfrom\UnityEngine.UmbraModule.dll_11364233455923216037.movedfrom
Library\Bee\artifacts\movedfrom\UnityEngine.UNETModule.dll_6622026500666434320.movedfrom
Library\Bee\artifacts\movedfrom\UnityEngine.UnityAnalyticsModule.dll_13566274921539142425.movedfrom
Library\Bee\artifacts\movedfrom\UnityEngine.UnityConnectModule.dll_10054292241968506829.movedfrom
Library\Bee\artifacts\movedfrom\UnityEngine.UnityCurlModule.dll_6603322915315790893.movedfrom
Library\Bee\artifacts\movedfrom\UnityEngine.UnityTestProtocolModule.dll_4153264364921642779.movedfrom
Library\Bee\artifacts\movedfrom\UnityEngine.UnityWebRequestAssetBundleModule.dll_15016364786879090858.movedfrom
Library\Bee\artifacts\movedfrom\UnityEngine.UnityWebRequestAudioModule.dll_3940127509051007982.movedfrom
Library\Bee\artifacts\movedfrom\UnityEngine.UnityWebRequestModule.dll_17576802512583256844.movedfrom
Library\Bee\artifacts\movedfrom\UnityEngine.UnityWebRequestTextureModule.dll_16838410490162406275.movedfrom
Library\Bee\artifacts\movedfrom\UnityEngine.UnityWebRequestWWWModule.dll_16978942597703081663.movedfrom
Library\Bee\artifacts\movedfrom\UnityEngine.VehiclesModule.dll_9409307673942063375.movedfrom
Library\Bee\artifacts\movedfrom\UnityEngine.VFXModule.dll_14088637281221765572.movedfrom
Library\Bee\artifacts\movedfrom\UnityEngine.VideoModule.dll_5182154915045519063.movedfrom
Library\Bee\artifacts\movedfrom\UnityEngine.VRModule.dll_5754005788176090724.movedfrom
Library\Bee\artifacts\movedfrom\UnityEngine.WindModule.dll_4579805969589578752.movedfrom
Library\Bee\artifacts\movedfrom\UnityEngine.XRModule.dll_9410580159897097154.movedfrom
Library\Bee\artifacts\movedfrom\Unity.VisualScripting.Antlr3.Runtime.dll_974907029339580197.movedfrom