Library\Bee\artifacts\movedfrom\Unity.VisualScripting.Core.ref.dll_15518829177300997364.movedfrom
Library\Bee\artifacts\movedfrom\UnityEditor.UI.ref.dll_5519394401220875509.movedfrom
Library\Bee\artifacts\movedfrom\UnityEngine.UI.ref.dll_648142665722821984.movedfrom
Library\Bee\artifacts\movedfrom\UnityEditor.Graphs.dll_12069125056169435294.movedfrom
Library\Bee\artifacts\movedfrom\UnityEditor.CoreModule.dll_11970302588816835180.movedfrom
Library\Bee\artifacts\movedfrom\UnityEditor.DeviceSimulatorModule.dll_8119868041101282069.movedfrom
Library\Bee\artifacts\movedfrom\UnityEditor.dll_12594664900222442345.movedfrom
Library\Bee\artifacts\movedfrom\UnityEditor.GraphViewModule.dll_6485634101417569690.movedfrom
Library\Bee\artifacts\movedfrom\UnityEditor.PackageManagerUIModule.dll_11226694418115649736.movedfrom
Library\Bee\artifacts\movedfrom\UnityEditor.QuickSearchModule.dll_8411607408077859964.movedfrom
Library\Bee\artifacts\movedfrom\UnityEditor.SceneTemplateModule.dll_1025046529717850749.movedfrom
Library\Bee\artifacts\movedfrom\UnityEditor.UIBuilderModule.dll_12576942935131547342.movedfrom
Library\Bee\artifacts\movedfrom\UnityEditor.UIElementsModule.dll_1247845665439117864.movedfrom
Library\Bee\artifacts\movedfrom\UnityEditor.UIElementsSamplesModule.dll_9070432155560446405.movedfrom
Library\Bee\artifacts\movedfrom\UnityEditor.UIServiceModule.dll_16680304262136674024.movedfrom
Library\Bee\artifacts\movedfrom\UnityEditor.UnityConnectModule.dll_11396501206033999650.movedfrom
Library\Bee\artifacts\movedfrom\UnityEngine.AccessibilityModule.dll_4674487899063482906.movedfrom
Library\Bee\artifacts\movedfrom\UnityEngine.AIModule.dll_113875406779939648.movedfrom
Library\Bee\artifacts\movedfrom\UnityEngine.AndroidJNIModule.dll_10347624706703745278.movedfrom
Library\Bee\artifacts\movedfrom\UnityEngine.AnimationModule.dll_2920327086327743040.movedfrom
Library\Bee\artifacts\movedfrom\UnityEngine.ARModule.dll_13476835069379402249.movedfrom
Library\Bee\artifacts\movedfrom\UnityEngine.AssetBundleModule.dll_13305105890512019822.movedfrom
Library\Bee\artifacts\movedfrom\UnityEngine.AudioModule.dll_2513345066786034482.movedfrom
Library\Bee\artifacts\movedfrom\UnityEngine.ClothModule.dll_9928624085722460694.movedfrom
Library\Bee\artifacts\movedfrom\UnityEngine.ClusterInputModule.dll_2145110407541389800.movedfrom
Library\Bee\artifacts\movedfrom\UnityEngine.ClusterRendererModule.dll_8528783499746777241.movedfrom
Library\Bee\artifacts\movedfrom\UnityEngine.CoreModule.dll_14501557931358760343.movedfrom
Library\Bee\artifacts\movedfrom\UnityEngine.CrashReportingModule.dll_5301683526245590415.movedfrom
Library\Bee\artifacts\movedfrom\UnityEngine.DirectorModule.dll_779573512041048436.movedfrom
Library\Bee\artifacts\movedfrom\UnityEngine.dll_16243784393410897998.movedfrom
Library\Bee\artifacts\movedfrom\UnityEngine.DSPGraphModule.dll_1162768060862659221.movedfrom
Library\Bee\artifacts\movedfrom\UnityEngine.GameCenterModule.dll_13395798708359188975.movedfrom
Library\Bee\artifacts\movedfrom\UnityEngine.GIModule.dll_11083598521942958938.movedfrom
Library\Bee\artifacts\movedfrom\UnityEngine.GridModule.dll_12011379521823949710.movedfrom
Library\Bee\artifacts\movedfrom\UnityEngine.HotReloadModule.dll_12236231847905287618.movedfrom
Library\Bee\artifacts\movedfrom\UnityEngine.ImageConversionModule.dll_16307060465731850381.movedfrom
Library\Bee\artifacts\movedfrom\UnityEngine.IMGUIModule.dll_6575485719458129683.movedfrom
Library\Bee\artifacts\movedfrom\UnityEngine.InputLegacyModule.dll_5326164543907223391.movedfrom
Library\Bee\artifacts\movedfrom\UnityEngine.InputModule.dll_9896371791641393110.movedfrom
Library\Bee\artifacts\movedfrom\UnityEngine.JSONSerializeModule.dll_11598641741947067044.movedfrom
Library\Bee\artifacts\movedfrom\UnityEngine.LocalizationModule.dll_6634295792200543457.movedfrom
Library\Bee\artifacts\movedfrom\UnityEngine.ParticleSystemModule.dll_11287610973587386653.movedfrom
Library\Bee\artifacts\movedfrom\UnityEngine.PerformanceReportingModule.dll_13740993982913059158.movedfrom
Library\Bee\artifacts\movedfrom\UnityEngine.Physics2DModule.dll_8443411421139646933.movedfrom
Library\Bee\artifacts\movedfrom\UnityEngine.PhysicsModule.dll_6038267022330361923.movedfrom
Library\Bee\artifacts\movedfrom\UnityEngine.ProfilerModule.dll_4402219368970989697.movedfrom
Library\Bee\artifacts\movedfrom\UnityEngine.RuntimeInitializeOnLoadManagerInitializerModule.dll_7614339147588031646.movedfrom
Library\Bee\artifacts\movedfrom\UnityEngine.ScreenCaptureModule.dll_13465293099600316166.movedfrom
Library\Bee\artifacts\movedfrom\UnityEngine.SharedInternalsModule.dll_7376772966181325789.movedfrom
Library\Bee\artifacts\movedfrom\UnityEngine.SpriteMaskModule.dll_11750984907823933289.movedfrom
Library\Bee\artifacts\movedfrom\UnityEngine.SpriteShapeModule.dll_15133898681818765688.movedfrom
Library\Bee\artifacts\movedfrom\UnityEngine.StreamingModule.dll_15932613238895409534.movedfrom
Library\Bee\artifacts\movedfrom\UnityEngine.SubstanceModule.dll_13386694379576424332.movedfrom
Library\Bee\artifacts\movedfrom\UnityEngine.SubsystemsModule.dll_991153543364366204.movedfrom
Library\Bee\artifacts\movedfrom\UnityEngine.TerrainModule.dll_7931603431648870705.movedfrom
Library\Bee\artifacts\movedfrom\UnityEngine.TerrainPhysicsModule.dll_11322136545361472426.movedfrom
Library\Bee\artifacts\movedfrom\UnityEngine.TextCoreModule.dll_11784915155619486084.movedfrom
Library\Bee\artifacts\movedfrom\UnityEngine.TextRenderingModule.dll_16437512769037240059.movedfrom
Library\Bee\artifacts\movedfrom\UnityEngine.TilemapModule.dll_941004714209714746.movedfrom
Library\Bee\artifacts\movedfrom\UnityEngine.TLSModule.dll_4802610197725904983.movedfrom
Library\Bee\artifacts\movedfrom\UnityEngine.UIElementsModule.dll_1296942467429862259.movedfrom
Library\Bee\artifacts\movedfrom\UnityEngine.UIElementsNativeModule.dll_16593213403051151594.movedfrom
Library\Bee\artifacts\movedfrom\UnityEngine.UIModule.dll_18232875050280452332.movedfrom
Library\Bee\artifacts\movedfrom\UnityEngine.UmbraModule.dll_11364233455923216037.movedfrom
Library\Bee\artifacts\movedfrom\UnityEngine.UNETModule.dll_6622026500666434320.movedfrom
Library\Bee\artifacts\movedfrom\UnityEngine.UnityAnalyticsModule.dll_13566274921539142425.movedfrom
Library\Bee\artifacts\movedfrom\UnityEngine.UnityConnectModule.dll_10054292241968506829.movedfrom
Library\Bee\artifacts\movedfrom\UnityEngine.UnityCurlModule.dll_6603322915315790893.movedfrom
Library\Bee\artifacts\movedfrom\UnityEngine.UnityTestProtocolModule.dll_4153264364921642779.movedfrom
Library\Bee\artifacts\movedfrom\UnityEngine.UnityWebRequestAssetBundleModule.dll_15016364786879090858.movedfrom
Library\Bee\artifacts\movedfrom\UnityEngine.UnityWebRequestAudioModule.dll_3940127509051007982.movedfrom
Library\Bee\artifacts\movedfrom\UnityEngine.UnityWebRequestModule.dll_17576802512583256844.movedfrom
Library\Bee\artifacts\movedfrom\UnityEngine.UnityWebRequestTextureModule.dll_16838410490162406275.movedfrom
Library\Bee\artifacts\movedfrom\UnityEngine.UnityWebRequestWWWModule.dll_16978942597703081663.movedfrom
Library\Bee\artifacts\movedfrom\UnityEngine.VehiclesModule.dll_9409307673942063375.movedfrom
Library\Bee\artifacts\movedfrom\UnityEngine.VFXModule.dll_14088637281221765572.movedfrom
Library\Bee\artifacts\movedfrom\UnityEngine.VideoModule.dll_5182154915045519063.movedfrom
Library\Bee\artifacts\movedfrom\UnityEngine.VirtualTexturingModule.dll_780147599621214581.movedfrom
Library\Bee\artifacts\movedfrom\UnityEngine.VRModule.dll_5754005788176090724.movedfrom
Library\Bee\artifacts\movedfrom\UnityEngine.WindModule.dll_4579805969589578752.movedfrom
Library\Bee\artifacts\movedfrom\UnityEngine.XRModule.dll_9410580159897097154.movedfrom
Library\Bee\artifacts\movedfrom\UnityEditor.Android.Extensions.dll_1450721688584170260.movedfrom
Library\Bee\artifacts\movedfrom\UnityEditor.WindowsStandalone.Extensions.dll_11200794291122659828.movedfrom
Library\Bee\artifacts\movedfrom\Unity.Plastic.Antlr3.Runtime.dll_6394244550571400762.movedfrom
Library\Bee\artifacts\movedfrom\Unity.VisualScripting.IonicZip.dll_15309278645461079213.movedfrom
Library\Bee\artifacts\movedfrom\Unity.VisualScripting.YamlDotNet.dll_923852514334172383.movedfrom
Library\Bee\artifacts\movedfrom\Unity.VisualScripting.Antlr3.Runtime.dll_13708770180136858878.movedfrom